EESchema Schematic File Version 4
EELAYER 30 0
EELAYER END
$Descr A4 11693 8268
encoding utf-8
Sheet 1 1
Title "MCS01A"
Date "2020-08-19"
Rev ""
Comp "elektroika"
Comment1 ""
Comment2 ""
Comment3 ""
Comment4 ""
$EndDescr
$Comp
L power:GND #PWR0101
U 1 1 5F328DBB
P 5600 4450
F 0 "#PWR0101" H 5600 4200 50  0001 C CNN
F 1 "GND" H 5605 4277 50  0000 C CNN
F 2 "" H 5600 4450 50  0001 C CNN
F 3 "" H 5600 4450 50  0001 C CNN
	1    5600 4450
	1    0    0    -1  
$EndComp
$Comp
L Device:C C1
U 1 1 5F32FF9D
P 6100 4350
F 0 "C1" H 6215 4396 50  0000 L CNN
F 1 "1nF" H 6215 4305 50  0000 L CNN
F 2 "Capacitor_SMD:C_0603_1608Metric_Pad1.05x0.95mm_HandSolder" H 6138 4200 50  0001 C CNN
F 3 "~" H 6100 4350 50  0001 C CNN
F 4 "CAP CER 1000PF 50V C0G/NP0 0603" H 6100 4350 50  0001 C CNN "Description"
F 5 "CL10C102JB8NNNC" H 6100 4350 50  0001 C CNN "Part Number"
	1    6100 4350
	1    0    0    -1  
$EndComp
$Comp
L Device:C C2
U 1 1 5F3308D4
P 3850 4000
F 0 "C2" H 3965 4046 50  0000 L CNN
F 1 "100nF" H 3965 3955 50  0000 L CNN
F 2 "Capacitor_SMD:C_0603_1608Metric_Pad1.05x0.95mm_HandSolder" H 3888 3850 50  0001 C CNN
F 3 "~" H 3850 4000 50  0001 C CNN
F 4 "CAP CER 0.1UF 50V X7R 0603" H 3850 4000 50  0001 C CNN "Description"
F 5 "CL10B104MB8NNNC" H 3850 4000 50  0001 C CNN "Part Number"
	1    3850 4000
	1    0    0    -1  
$EndComp
Wire Wire Line
	5200 3900 4950 3900
$Comp
L Connector_Generic:Conn_01x01 J1
U 1 1 5F33C147
P 4750 3900
F 0 "J1" H 4750 3800 50  0000 C CNN
F 1 "IP+" H 4900 3900 50  0000 C CNN
F 2 "MountingHole:MountingHole_3.2mm_M3_Pad" H 4750 3900 50  0001 C CNN
F 3 "~" H 4750 3900 50  0001 C CNN
	1    4750 3900
	-1   0    0    1   
$EndComp
$Comp
L Connector_Generic:Conn_01x01 J2
U 1 1 5F33CE36
P 4750 4100
F 0 "J2" H 4750 4200 50  0000 C CNN
F 1 "IP-" H 4900 4100 50  0000 C CNN
F 2 "MountingHole:MountingHole_3.2mm_M3_Pad" H 4750 4100 50  0001 C CNN
F 3 "~" H 4750 4100 50  0001 C CNN
	1    4750 4100
	-1   0    0    1   
$EndComp
Text Label 5150 3900 2    50   ~ 0
IP+
Text Label 5150 4100 2    50   ~ 0
IP-
Text Label 6150 4000 0    50   ~ 0
VOUT
Text Label 6150 4100 0    50   ~ 0
VZCR
Wire Wire Line
	6100 4100 6100 4200
Wire Wire Line
	6000 4000 6350 4000
$Comp
L Sensor_Current:ACS730xLCTR-50AB U1
U 1 1 5F3CE3AD
P 5600 4000
F 0 "U1" H 5350 4250 50  0000 C CNN
F 1 "ACS730xLCTR-50AB" H 6100 4250 50  0000 C CNN
F 2 "Package_SO:SOIC-8_3.9x4.9mm_P1.27mm" H 5950 3900 50  0001 L CIN
F 3 "http://www.allegromicro.com/~/media/Files/Datasheets/ACS730-Datasheet.ashx?la=en" H 5600 4000 50  0001 C CNN
F 4 "1MHZ BANDWIDTH INTEGRATED, HALL" H 5600 4000 50  0001 C CNN "Description"
F 5 "ACS730KLCTR-50AB-T" H 5600 4000 50  0001 C CNN "Part Number"
	1    5600 4000
	1    0    0    -1  
$EndComp
$Comp
L power:+5V #PWR0104
U 1 1 5F3F6D58
P 5600 3550
F 0 "#PWR0104" H 5600 3400 50  0001 C CNN
F 1 "+5V" H 5615 3723 50  0000 C CNN
F 2 "" H 5600 3550 50  0001 C CNN
F 3 "" H 5600 3550 50  0001 C CNN
	1    5600 3550
	1    0    0    -1  
$EndComp
Wire Wire Line
	5600 3550 5600 3700
$Comp
L power:GND #PWR0105
U 1 1 5F3F7A8C
P 3850 4300
F 0 "#PWR0105" H 3850 4050 50  0001 C CNN
F 1 "GND" H 3855 4127 50  0000 C CNN
F 2 "" H 3850 4300 50  0001 C CNN
F 3 "" H 3850 4300 50  0001 C CNN
	1    3850 4300
	1    0    0    -1  
$EndComp
Wire Wire Line
	3850 4150 3850 4300
$Comp
L power:+5V #PWR0106
U 1 1 5F3F8175
P 3850 3650
F 0 "#PWR0106" H 3850 3500 50  0001 C CNN
F 1 "+5V" H 3865 3823 50  0000 C CNN
F 2 "" H 3850 3650 50  0001 C CNN
F 3 "" H 3850 3650 50  0001 C CNN
	1    3850 3650
	1    0    0    -1  
$EndComp
Wire Wire Line
	3850 3650 3850 3850
Wire Wire Line
	5600 4300 5600 4450
$Comp
L power:GND #PWR0107
U 1 1 5F3FB1C9
P 6100 4700
F 0 "#PWR0107" H 6100 4450 50  0001 C CNN
F 1 "GND" H 6105 4527 50  0000 C CNN
F 2 "" H 6100 4700 50  0001 C CNN
F 3 "" H 6100 4700 50  0001 C CNN
	1    6100 4700
	1    0    0    -1  
$EndComp
Wire Wire Line
	4950 4100 5200 4100
Wire Wire Line
	6100 4100 6350 4100
$Comp
L power:GND #PWR0103
U 1 1 5F3F43CE
P 7450 4550
F 0 "#PWR0103" H 7450 4300 50  0001 C CNN
F 1 "GND" H 7600 4450 50  0000 C CNN
F 2 "" H 7450 4550 50  0001 C CNN
F 3 "" H 7450 4550 50  0001 C CNN
	1    7450 4550
	1    0    0    -1  
$EndComp
$Comp
L Connector_Generic:Conn_01x04 J3
U 1 1 5F33F5C7
P 8450 4000
F 0 "J3" H 8530 3992 50  0000 L CNN
F 1 "L-KLS1-XL1-2.00-04-R" H 8530 3901 50  0000 L CNN
F 2 "Connector_Molex:Molex_Micro-Latch_53254-0470_1x04_P2.00mm_Horizontal" H 8450 4000 50  0001 C CNN
F 3 "~" H 8450 4000 50  0001 C CNN
F 4 "55935-0410" H 8450 4000 50  0001 C CNN "Part Number"
F 5 "Molex" H 8450 4000 50  0001 C CNN "Manufacturer"
F 6 "CONN HEADER R/A 4POS 2MM" H 8450 4000 50  0001 C CNN "Description"
	1    8450 4000
	1    0    0    -1  
$EndComp
$Comp
L power:+5V #PWR0102
U 1 1 5F339E11
P 7450 3600
F 0 "#PWR0102" H 7450 3450 50  0001 C CNN
F 1 "+5V" V 7450 3800 50  0000 C CNN
F 2 "" H 7450 3600 50  0001 C CNN
F 3 "" H 7450 3600 50  0001 C CNN
	1    7450 3600
	0    -1   -1   0   
$EndComp
Wire Wire Line
	7450 4500 7650 4500
Wire Wire Line
	7450 4550 7450 4500
Text Label 7550 3900 2    50   ~ 0
VOUT
Text Label 7550 4200 2    50   ~ 0
VZCR
Wire Notes Line
	3850 4650 3850 4950
Wire Notes Line
	3850 4950 4250 4950
Text Notes 4300 4950 0    50   ~ 0
Place close to U1
Text Notes 800  850  0    50   ~ 0
This design is licensed under Creative Commons Attribution 4.0 International (CC BY 4.0)
Text Notes 800  1150 0    50   ~ 0
You are free to:\n    Share — copy and redistribute the material in any medium or format\n    Adapt — remix, transform, and build upon the material  for any purpose, even commercially. 
$Comp
L Device:Ferrite_Bead_Small FB1
U 1 1 5F43E5EE
P 7750 4500
F 0 "FB1" V 7700 4650 50  0000 C CNN
F 1 "MPZ1608D101B" V 7600 4900 50  0000 C CNN
F 2 "Inductor_SMD:L_0603_1608Metric" V 7680 4500 50  0001 C CNN
F 3 "~" H 7750 4500 50  0001 C CNN
F 4 "MPZ1608D101B" H 7750 4500 50  0001 C CNN "Part Number"
F 5 "FERRITE CHIP 100  1A 0603" H 7750 4500 50  0001 C CNN "Description"
	1    7750 4500
	0    1    -1   0   
$EndComp
Wire Wire Line
	7850 4500 8150 4500
Wire Wire Line
	8150 4500 8150 4200
Wire Wire Line
	8150 4200 8250 4200
Wire Wire Line
	8050 4200 8050 4100
Wire Wire Line
	8050 4100 8250 4100
Wire Wire Line
	8050 3900 8050 4000
Wire Wire Line
	8050 4000 8250 4000
Wire Wire Line
	8250 3900 8150 3900
Wire Wire Line
	8150 3900 8150 3600
Wire Wire Line
	8150 3600 7850 3600
$Comp
L power:PWR_FLAG #FLG0101
U 1 1 5F45A128
P 2850 4200
F 0 "#FLG0101" H 2850 4275 50  0001 C CNN
F 1 "PWR_FLAG" V 2850 4328 50  0000 L CNN
F 2 "" H 2850 4200 50  0001 C CNN
F 3 "~" H 2850 4200 50  0001 C CNN
	1    2850 4200
	-1   0    0    -1  
$EndComp
Wire Wire Line
	6100 4500 6100 4700
$Comp
L power:PWR_FLAG #FLG0102
U 1 1 5F45C878
P 2650 4200
F 0 "#FLG0102" H 2650 4275 50  0001 C CNN
F 1 "PWR_FLAG" V 2650 4328 50  0000 L CNN
F 2 "" H 2650 4200 50  0001 C CNN
F 3 "~" H 2650 4200 50  0001 C CNN
	1    2650 4200
	-1   0    0    -1  
$EndComp
$Comp
L power:+5V #PWR0108
U 1 1 5F4606DE
P 3100 4200
F 0 "#PWR0108" H 3100 4050 50  0001 C CNN
F 1 "+5V" H 3115 4373 50  0000 C CNN
F 2 "" H 3100 4200 50  0001 C CNN
F 3 "" H 3100 4200 50  0001 C CNN
	1    3100 4200
	1    0    0    -1  
$EndComp
Wire Wire Line
	3100 4200 3100 4300
Wire Wire Line
	3100 4300 2850 4300
Wire Wire Line
	2850 4300 2850 4200
Wire Wire Line
	7450 3600 7650 3600
$Comp
L power:GND #PWR0109
U 1 1 5F46396D
P 2650 4350
F 0 "#PWR0109" H 2650 4100 50  0001 C CNN
F 1 "GND" H 2655 4177 50  0000 C CNN
F 2 "" H 2650 4350 50  0001 C CNN
F 3 "" H 2650 4350 50  0001 C CNN
	1    2650 4350
	1    0    0    -1  
$EndComp
Wire Wire Line
	2650 4200 2650 4350
Wire Notes Line
	2400 2950 2400 5300
Wire Notes Line
	2400 5300 3300 5300
Wire Notes Line
	3300 5300 3300 2950
Wire Notes Line
	3300 2950 2400 2950
Text Notes 2400 2900 0    50   ~ 10
Required for ERC check
$Comp
L Device:Ferrite_Bead_Small FB2
U 1 1 5F452AA7
P 7750 3600
F 0 "FB2" V 7700 3750 50  0000 C CNN
F 1 "MPZ1608D101B" V 7850 3950 50  0000 C CNN
F 2 "Inductor_SMD:L_0603_1608Metric" V 7680 3600 50  0001 C CNN
F 3 "~" H 7750 3600 50  0001 C CNN
F 4 "MPZ1608D101B" H 7750 3600 50  0001 C CNN "Part Number"
F 5 "FERRITE CHIP 100  1A 0603" H 7750 3600 50  0001 C CNN "Description"
	1    7750 3600
	0    1    -1   0   
$EndComp
Wire Wire Line
	7350 4200 8050 4200
Wire Wire Line
	7350 3900 8050 3900
Wire Wire Line
	6000 4100 6100 4100
Connection ~ 6100 4100
Wire Notes Line
	3500 2950 3500 5300
Wire Notes Line
	3500 5300 6850 5300
Wire Notes Line
	6850 5300 6850 2950
Wire Notes Line
	6850 2950 3500 2950
Text Notes 4800 2900 0    50   ~ 10
Current Sensor
Wire Notes Line
	7050 2950 7050 5300
Wire Notes Line
	7050 5300 9700 5300
Wire Notes Line
	9700 5300 9700 2950
Wire Notes Line
	9700 2950 7050 2950
Text Notes 8100 2900 0    50   ~ 10
Connector
$EndSCHEMATC
